


{"abbas":
 [
  {
     "id" : "5",
    "name":"abbas",
    "title":"nebo"
  },
  {
    "id": "6",
    "name":"abbas",
    "title":"nebo"
  } 
 ],


  "post":

{
 "id" : "1",
  "meta": {
    "status": "200",
    "msg": "OK"
  },
  "response": {
    "post_status": "published",
    "post_id": 5,
    "blog_id": 5,
    "blog_username": "Abbas",
    "blog_avatar": "",
    "blog_avatar_shape": "",
    "blog_title": "",
    "pinned": false,
    "post_time": "02-02-2012",
    "question_body": "How are you?",
    "question_id": 3,
    "question_flag": false,
    "blog_id_asking": "",
    "blog_username_asking": "",
    "blog_avatar_asking": "",
    "blog_avatar_shape_asking": "",
    "blog_title_asking": "",
    "post_type": "general",
    "post_body": "<div> <h1>What's Artificial intellegence? </h1> <img src='https://modo3.com/thumbs/fit630x300/84738/1453981470/%D8%A8%D8%AD%D8%AB_%D8%B9%D9%86_Google.jpg' alt=''> <p>It's the weapon that'd end the humanity!!</p> <video width='320' height='240' controls> <source src='movie.mp4' type='video/mp4'> <source src='movie.ogg' type='video/ogg'> Your browser does not support the video tag. </video> <p>#AI #humanity #freedom</p> </div>",
    "traced_back_posts": [
      {
        "post_id": 5,
        "blog_id": 5,
        "blog_username": "",
        "blog_avatar": "",
        "blog_avatar_shape": "",
        "blog_title": "",
        "post_time": "02-02-2011",
        "post_type": "general",
        "post_body": "<div> <h1>What's Artificial intellegence? </h1> <img src='https://modo3.com/thumbs/fit630x300/84738/1453981470/%D8%A8%D8%AD%D8%AB_%D8%B9%D9%86_Google.jpg' alt=''> <p>It's the weapon that'd end the humanity!!</p> <video width='320' height='240' controls> <source src='movie.mp4' type='video/mp4'> <source src='movie.ogg' type='video/ogg'> Your browser does not support the video tag. </video> <p>#AI #humanity #freedom</p> </div>",
        "question_body": "How are you?",
        "question_id": 3,
        "question_flag": false,
        "blog_id_asking": "",
        "blog_username_asking": "",
        "blog_avatar_asking": "",
        "blog_avatar_shape_asking": "",
        "blog_title_asking": ""
      }
    ]
  }
}
 ,
 
 "note":
 
 {
  "meta": {
    "status": "200",
    "msg": "ok"
  },
  "response": {
    "likes": [
      {
        "blog_avatar": "/storage/imgname2.extension",
        "blog_avatar_shape": "circle",
        "blog_username": "radwa-ahmed213",
        "blog_title": "Positive Quotes",
        "blog_id": 1032,
        "followed": false
      }
    ],
    "replies": [
      {
        "blog_avatar": "/storage/imgname2.extension",
        "blog_avatar_shape": "circle",
        "blog_username": "radwa-ahmed213",
        "blog_id": 2,
        "reply_id": 5,
        "reply_time": "02-02-2012",
        "reply_text": "What an amazing post!"
      },
      {
        "blog_avatar": "/storage/imgname2.extension",
        "blog_avatar_shape": "circle",
        "blog_username": "radwa-ahmed213",
        "blog_id": 2,
        "reply_id": 5,
        "reply_time": "02-02-2012",
        "reply_text": "What an amazing post!"
      }
      ,
      {
        "blog_avatar": "/storage/imgname2.extension",
        "blog_avatar_shape": "circle",
        "blog_username": "radwa-ahmed213",
        "blog_id": 2,
        "reply_id": 5,
        "reply_time": "02-02-2012",
        "reply_text": "What an amazing post!"
      }
    ],
    "reblogs": [
      {
        "post_id": 5,
        "blog_avatar": "/storage/imgname2.extension",
        "blog_avatar_shape": "circle",
        "blog_username": "radwa-ahmed213",
        "blog_id": 2,
        "reblog_content": "<div> <h1>What's Artificial intellegence? </h1> <img src='https://modo3.com/thumbs/fit630x300/84738/1453981470/%D8%A8%D8%AD%D8%AB_%D8%B9%D9%86_Google.jpg' alt=''> <p>It's the weapon that'd end the humanity!!</p> <video width='320' height='240' controls> <source src='movie.mp4' type='video/mp4'> <source src='movie.ogg' type='video/ogg'> Your browser does not support the video tag. </video> <p>#AI #humanity #freedom</p> </div>"
      }
    ]
  }
}
,
"tags":
{
  "suggesting":{

  "meta": {
    "status": "200",
    "msg": "OK"
  },
  "response": {
    "pagination": {
      "total": 120,
      "count": 10,
      "per_page": 10,
      "current_page": 2,
      "total_pages": 12,
      "first_page_url": false,
      "last_page_url": 12,
      "next_page_url": "http://127.0.0.1:8000/api/tag/trending?page=3",
      "prev_page_url": "http://127.0.0.1:8000/api/tag/trending?page=1"
    },
    "tags": [
      {
        "tag_description": "books",
        "tag_image": "",
        "posts_count": 12,
        "followed": false,
        "followers_number": 1026
      },
      {
        "tag_description": "CMP",
        "tag_image": "",
        "posts_count": 15,
        "followed": false,
        "followers_number": 106
      },
      {
        "tag_description": "software",
        "tag_image": "",
        "posts_count": 22,
        "followed": true,
        "followers_number": 1089
      }
    ]
  }
      
  }  ,

  
}
 



}
